[gd_scene load_steps=2 format=2]

[ext_resource path="res://Assets/sound/bgm.wav" type="AudioStream" id=1]

[node name="AudioStreamPlayer" type="AudioStreamPlayer"]
stream = ExtResource( 1 )
volume_db = -10.0
