[gd_scene load_steps=2 format=2]

[ext_resource path="res://Assets/background/u9hVtL.jpg" type="Texture" id=1]

[node name="ParallaxBackground" type="ParallaxBackground"]

[node name="ParallaxLayer" type="ParallaxLayer" parent="."]
motion_mirroring = Vector2( 2175, 0 )

[node name="Sprite" type="Sprite" parent="ParallaxLayer"]
position = Vector2( 0, -647.575 )
scale = Vector2( 3, 3 )
texture = ExtResource( 1 )
centered = false
